Final_xl2836
…
mentalhealth_2016_tidied

## # A tibble: 1,432 x 63
##    self_employed num_employees tech_company tech_role benefits care_options
##            <int> <chr>                <int>     <int> <chr>    <chr>       
##  1             0 26-100                   1        NA Not eli N/A         
##  2             0 6-25                     1        NA No       Yes         
##  3             0 6-25                     1        NA No       N/A         
##  4             1 <NA>                    NA        NA <NA>     <NA>        
##  5             0 6-25                     0         1 Yes      Yes         
##  6             0 More than 10            1        NA Yes      I am not su
##  7             0 26-100                   1        NA I don't No          
##  8             0 More than 10            1        NA Yes      Yes         
##  9             0 26-100                   0         1 I don't No          
## 10             1 <NA>                    NA        NA <NA>     <NA>        
## # ... with 1,422 more rows, and 57 more variables:
## #   employer_discussion <chr>, employer_help <chr>, anonymity <chr>,
## #   medical_leave <chr>, mental_health_consequences <chr>,
## #   physical_health_consequences <chr>, coworkers_discussion <chr>,
## #   supervisor_discussion <chr>, mental_vs_physical <chr>,
## #   obs_consequence <chr>, medical_coverage <int>, help_resourcces <chr>,
## #   whether_reveal_business_contacts <chr>,
## #   reveal_concequences_business_contects <chr>,
## #   whether_reveal_coworkers <chr>, reveal_concequences_coworkers <chr>,
…
